{
 "add_total_row": 0,
 "creation": "2019-01-30 10:24:42.583572",
 "disable_prepared_report": 1,
 "disabled": 0,
 "docstatus": 0,
 "doctype": "Report",
 "idx": 0,
 "is_standard": "Yes",
 "letter_head": "Default",
 "modified": "2019-08-29 11:22:23.138551",
 "modified_by": "Administrator",
 "module": "Dhupar Group",
 "name": "TPL Stock Ledger",
 "owner": "Administrator",
 "prepared_report": 0,
 "query": "SELECT\n`tabStock Ledger Entry`.`posting_date` as \"Date:Date:120\",\n`tabStock Ledger Entry`.`item_code` as \"Item Code:Link/Item:80\",\n(SELECT `tabItem`.`Item_name` FROM `tabItem` WHERE `tabItem`.`name` = `tabStock Ledger Entry`.`Item_Code`) AS ItemName,\n`tabStock Ledger Entry`.`voucher_no`,\n`tabStock Ledger Entry`.`voucher_Type`,\n(SELECT `tabDelivery Note`.`customer_name` FROM `tabDelivery Note` WHERE `tabDelivery Note`.`name` = `tabStock Ledger Entry`.`voucher_no`) AS Customer,\n`tabStock Ledger Entry`.`warehouse`,\n`tabStock Ledger Entry`.`actual_qty`,\n`tabStock Ledger Entry`.`stock_uom`,\n`tabStock Ledger Entry`.`qty_after_transaction`,\n(SELECT `tabDelivery Note`.`terms` FROM `tabDelivery Note` WHERE `tabDelivery Note`.`name` = `tabStock Ledger Entry`.`voucher_no`) AS Remark,\n(SELECT `tabDelivery Note`.`shipping_address` FROM `tabDelivery Note` WHERE `tabDelivery Note`.`name` = `tabStock Ledger Entry`.`voucher_no`) AS Address\nFROM\n   `tabStock Ledger Entry`\nWHERE\n   `tabStock Ledger Entry`.`voucher_no` like 'DC-TPL%' and `tabStock Ledger Entry`.`posting_date` >= '2018-04-01' and `tabStock Ledger Entry`.`posting_date` <= '2019-03-31'\nOrder by `item_code`,`posting_date`",
 "ref_doctype": "Stock Ledger Entry",
 "report_name": "TPL Stock Ledger",
 "report_type": "Query Report",
 "roles": [
  {
   "role": "Accounts User"
  },
  {
   "role": "Stock Manager"
  },
  {
   "role": "Stock User"
  },
  {
   "role": "Sales User"
  }
 ]
}