{
 "custom_fields": [
  {
   "_assign": null,
   "_comments": null,
   "_liked_by": null,
   "_user_tags": null,
   "allow_on_submit": 1,
   "bold": 0,
   "collapsible": 0,
   "collapsible_depends_on": null,
   "columns": 1,
   "creation": "2018-03-17 01:27:49.055327",
   "default": null,
   "depends_on": null,
   "description": null,
   "docstatus": 0,
   "dt": "Quotation Item",
   "fetch_from": "item_code.gst_hsn_code",
   "fetch_if_empty": 1,
   "fieldname": "gst_hsn_code",
   "fieldtype": "Data",
   "hidden": 0,
   "idx": 6,
   "ignore_user_permissions": 0,
   "ignore_xss_filter": 0,
   "in_global_search": 0,
   "in_list_view": 1,
   "in_standard_filter": 0,
   "insert_after": "description",
   "label": "HSN/SAC",
   "modified": "2019-05-19 12:38:59.927061",
   "modified_by": "Administrator",
   "name": "Quotation Item-gst_hsn_code",
   "no_copy": 0,
   "options": "item_code.gst_hsn_code",
   "owner": "Administrator",
   "parent": null,
   "parentfield": null,
   "parenttype": null,
   "permlevel": 0,
   "precision": "",
   "print_hide": 1,
   "print_hide_if_no_value": 0,
   "print_width": null,
   "read_only": 0,
   "report_hide": 0,
   "reqd": 0,
   "search_index": 0,
   "translatable": 1,
   "unique": 0,
   "width": null
  },
  {
   "_assign": null,
   "_comments": null,
   "_liked_by": null,
   "_user_tags": null,
   "allow_on_submit": 0,
   "bold": 0,
   "collapsible": 0,
   "collapsible_depends_on": null,
   "columns": 0,
   "creation": "2018-12-17 12:25:20.618872",
   "default": null,
   "depends_on": null,
   "description": null,
   "docstatus": 0,
   "dt": "Quotation Item",
   "fetch_from": null,
   "fetch_if_empty": 0,
   "fieldname": "salesforce_id",
   "fieldtype": "Data",
   "hidden": 0,
   "idx": 58,
   "ignore_user_permissions": 0,
   "ignore_xss_filter": 0,
   "in_global_search": 0,
   "in_list_view": 0,
   "in_standard_filter": 0,
   "insert_after": "brand",
   "label": "salesforce_id",
   "modified": "2018-12-17 12:25:20.618872",
   "modified_by": "gurshish@dhupargroup.com",
   "name": "Quotation Item-salesforce_id",
   "no_copy": 0,
   "options": null,
   "owner": "gurshish@dhupargroup.com",
   "parent": null,
   "parentfield": null,
   "parenttype": null,
   "permlevel": 0,
   "precision": "",
   "print_hide": 0,
   "print_hide_if_no_value": 0,
   "print_width": null,
   "read_only": 0,
   "report_hide": 0,
   "reqd": 0,
   "search_index": 0,
   "translatable": 1,
   "unique": 0,
   "width": null
  }
 ],
 "custom_perms": [],
 "doctype": "Quotation Item",
 "property_setters": [
  {
   "_assign": null,
   "_comments": null,
   "_liked_by": null,
   "_user_tags": null,
   "creation": "2018-12-17 12:25:20.554309",
   "default_value": null,
   "doc_type": "Quotation Item",
   "docstatus": 0,
   "doctype_or_field": "DocType",
   "field_name": null,
   "idx": 0,
   "modified": "2018-12-17 12:25:20.554309",
   "modified_by": "gurshish@dhupargroup.com",
   "name": "Quotation Item-read_only_onload",
   "owner": "gurshish@dhupargroup.com",
   "parent": null,
   "parentfield": null,
   "parenttype": null,
   "property": "read_only_onload",
   "property_type": "Check",
   "value": null
  },
  {
   "_assign": null,
   "_comments": null,
   "_liked_by": null,
   "_user_tags": null,
   "creation": "2018-10-10 22:12:44.340284",
   "default_value": null,
   "doc_type": "Quotation Item",
   "docstatus": 0,
   "doctype_or_field": "DocType",
   "field_name": "",
   "idx": 0,
   "modified": "2018-10-10 22:12:44.340284",
   "modified_by": "Administrator",
   "name": "Quotation Item-autoname",
   "owner": "Administrator",
   "parent": null,
   "parentfield": null,
   "parenttype": null,
   "property": "autoname",
   "property_type": "",
   "value": "QUOD/.#####"
  },
  {
   "_assign": null,
   "_comments": null,
   "_liked_by": null,
   "_user_tags": null,
   "creation": "2018-03-27 13:15:18.299092",
   "default_value": null,
   "doc_type": "Quotation Item",
   "docstatus": 0,
   "doctype_or_field": "DocField",
   "field_name": "item_tax_rate",
   "idx": 0,
   "modified": "2018-03-27 13:15:18.299092",
   "modified_by": "rohit_rakesh@hotmail.com",
   "name": "Quotation Item-item_tax_rate-columns",
   "owner": "rohit_rakesh@hotmail.com",
   "parent": null,
   "parentfield": null,
   "parenttype": null,
   "property": "columns",
   "property_type": "Int",
   "value": "1"
  },
  {
   "_assign": null,
   "_comments": null,
   "_liked_by": null,
   "_user_tags": null,
   "creation": "2018-03-27 13:15:18.291897",
   "default_value": null,
   "doc_type": "Quotation Item",
   "docstatus": 0,
   "doctype_or_field": "DocField",
   "field_name": "item_tax_rate",
   "idx": 0,
   "modified": "2018-03-27 13:15:18.291897",
   "modified_by": "rohit_rakesh@hotmail.com",
   "name": "Quotation Item-item_tax_rate-width",
   "owner": "rohit_rakesh@hotmail.com",
   "parent": null,
   "parentfield": null,
   "parenttype": null,
   "property": "width",
   "property_type": "Data",
   "value": "100pxl"
  },
  {
   "_assign": null,
   "_comments": null,
   "_liked_by": null,
   "_user_tags": null,
   "creation": "2018-03-27 13:15:18.280591",
   "default_value": null,
   "doc_type": "Quotation Item",
   "docstatus": 0,
   "doctype_or_field": "DocField",
   "field_name": "item_tax_rate",
   "idx": 0,
   "modified": "2018-03-27 13:15:18.280591",
   "modified_by": "rohit_rakesh@hotmail.com",
   "name": "Quotation Item-item_tax_rate-in_list_view",
   "owner": "rohit_rakesh@hotmail.com",
   "parent": null,
   "parentfield": null,
   "parenttype": null,
   "property": "in_list_view",
   "property_type": "Check",
   "value": "1"
  },
  {
   "_assign": null,
   "_comments": null,
   "_liked_by": null,
   "_user_tags": null,
   "creation": "2018-03-27 13:15:18.268001",
   "default_value": null,
   "doc_type": "Quotation Item",
   "docstatus": 0,
   "doctype_or_field": "DocField",
   "field_name": "item_tax_rate",
   "idx": 0,
   "modified": "2018-03-27 13:15:18.268001",
   "modified_by": "rohit_rakesh@hotmail.com",
   "name": "Quotation Item-item_tax_rate-print_width",
   "owner": "rohit_rakesh@hotmail.com",
   "parent": null,
   "parentfield": null,
   "parenttype": null,
   "property": "print_width",
   "property_type": "Data",
   "value": "100pxl"
  },
  {
   "_assign": null,
   "_comments": null,
   "_liked_by": null,
   "_user_tags": null,
   "creation": "2018-03-27 13:15:18.236815",
   "default_value": null,
   "doc_type": "Quotation Item",
   "docstatus": 0,
   "doctype_or_field": "DocField",
   "field_name": "amount",
   "idx": 0,
   "modified": "2018-03-27 13:15:18.236815",
   "modified_by": "rohit_rakesh@hotmail.com",
   "name": "Quotation Item-amount-columns",
   "owner": "rohit_rakesh@hotmail.com",
   "parent": null,
   "parentfield": null,
   "parenttype": null,
   "property": "columns",
   "property_type": "Int",
   "value": "1"
  },
  {
   "_assign": null,
   "_comments": null,
   "_liked_by": null,
   "_user_tags": null,
   "creation": "2018-03-27 13:15:18.226088",
   "default_value": null,
   "doc_type": "Quotation Item",
   "docstatus": 0,
   "doctype_or_field": "DocField",
   "field_name": "rate",
   "idx": 0,
   "modified": "2018-03-27 13:15:18.226088",
   "modified_by": "rohit_rakesh@hotmail.com",
   "name": "Quotation Item-rate-columns",
   "owner": "rohit_rakesh@hotmail.com",
   "parent": null,
   "parentfield": null,
   "parenttype": null,
   "property": "columns",
   "property_type": "Int",
   "value": "1"
  },
  {
   "_assign": null,
   "_comments": null,
   "_liked_by": null,
   "_user_tags": null,
   "creation": "2018-03-27 13:15:18.216471",
   "default_value": null,
   "doc_type": "Quotation Item",
   "docstatus": 0,
   "doctype_or_field": "DocField",
   "field_name": "rate",
   "idx": 0,
   "modified": "2018-03-27 13:15:18.216471",
   "modified_by": "rohit_rakesh@hotmail.com",
   "name": "Quotation Item-rate-print_hide",
   "owner": "rohit_rakesh@hotmail.com",
   "parent": null,
   "parentfield": null,
   "parenttype": null,
   "property": "print_hide",
   "property_type": "Check",
   "value": "1"
  },
  {
   "_assign": null,
   "_comments": null,
   "_liked_by": null,
   "_user_tags": null,
   "creation": "2018-03-27 13:15:18.205790",
   "default_value": null,
   "doc_type": "Quotation Item",
   "docstatus": 0,
   "doctype_or_field": "DocField",
   "field_name": "discount_percentage",
   "idx": 0,
   "modified": "2018-03-27 13:15:18.205790",
   "modified_by": "rohit_rakesh@hotmail.com",
   "name": "Quotation Item-discount_percentage-print_hide",
   "owner": "rohit_rakesh@hotmail.com",
   "parent": null,
   "parentfield": null,
   "parenttype": null,
   "property": "print_hide",
   "property_type": "Check",
   "value": "0"
  },
  {
   "_assign": null,
   "_comments": null,
   "_liked_by": null,
   "_user_tags": null,
   "creation": "2018-03-27 13:15:18.194825",
   "default_value": null,
   "doc_type": "Quotation Item",
   "docstatus": 0,
   "doctype_or_field": "DocField",
   "field_name": "margin_type",
   "idx": 0,
   "modified": "2018-03-27 13:15:18.194825",
   "modified_by": "rohit_rakesh@hotmail.com",
   "name": "Quotation Item-margin_type-translatable",
   "owner": "rohit_rakesh@hotmail.com",
   "parent": null,
   "parentfield": null,
   "parenttype": null,
   "property": "translatable",
   "property_type": "Check",
   "value": "1"
  },
  {
   "_assign": null,
   "_comments": null,
   "_liked_by": null,
   "_user_tags": null,
   "creation": "2018-03-27 13:15:18.183228",
   "default_value": null,
   "doc_type": "Quotation Item",
   "docstatus": 0,
   "doctype_or_field": "DocField",
   "field_name": "price_list_rate",
   "idx": 0,
   "modified": "2018-03-27 13:15:18.183228",
   "modified_by": "rohit_rakesh@hotmail.com",
   "name": "Quotation Item-price_list_rate-width",
   "owner": "rohit_rakesh@hotmail.com",
   "parent": null,
   "parentfield": null,
   "parenttype": null,
   "property": "width",
   "property_type": "Data",
   "value": "100pxl"
  },
  {
   "_assign": null,
   "_comments": null,
   "_liked_by": null,
   "_user_tags": null,
   "creation": "2018-03-27 13:15:18.170371",
   "default_value": null,
   "doc_type": "Quotation Item",
   "docstatus": 0,
   "doctype_or_field": "DocField",
   "field_name": "price_list_rate",
   "idx": 0,
   "modified": "2018-03-27 13:15:18.170371",
   "modified_by": "rohit_rakesh@hotmail.com",
   "name": "Quotation Item-price_list_rate-print_hide",
   "owner": "rohit_rakesh@hotmail.com",
   "parent": null,
   "parentfield": null,
   "parenttype": null,
   "property": "print_hide",
   "property_type": "Check",
   "value": "0"
  },
  {
   "_assign": null,
   "_comments": null,
   "_liked_by": null,
   "_user_tags": null,
   "creation": "2018-03-27 13:15:18.162498",
   "default_value": null,
   "doc_type": "Quotation Item",
   "docstatus": 0,
   "doctype_or_field": "DocField",
   "field_name": "price_list_rate",
   "idx": 0,
   "modified": "2018-03-27 13:15:18.162498",
   "modified_by": "rohit_rakesh@hotmail.com",
   "name": "Quotation Item-price_list_rate-in_list_view",
   "owner": "rohit_rakesh@hotmail.com",
   "parent": null,
   "parentfield": null,
   "parenttype": null,
   "property": "in_list_view",
   "property_type": "Check",
   "value": "1"
  },
  {
   "_assign": null,
   "_comments": null,
   "_liked_by": null,
   "_user_tags": null,
   "creation": "2018-03-27 13:15:18.154036",
   "default_value": null,
   "doc_type": "Quotation Item",
   "docstatus": 0,
   "doctype_or_field": "DocField",
   "field_name": "price_list_rate",
   "idx": 0,
   "modified": "2018-03-27 13:15:18.154036",
   "modified_by": "rohit_rakesh@hotmail.com",
   "name": "Quotation Item-price_list_rate-print_width",
   "owner": "rohit_rakesh@hotmail.com",
   "parent": null,
   "parentfield": null,
   "parenttype": null,
   "property": "print_width",
   "property_type": "Data",
   "value": "100pxl"
  },
  {
   "_assign": null,
   "_comments": null,
   "_liked_by": null,
   "_user_tags": null,
   "creation": "2018-03-27 13:15:18.142041",
   "default_value": null,
   "doc_type": "Quotation Item",
   "docstatus": 0,
   "doctype_or_field": "DocField",
   "field_name": "stock_uom",
   "idx": 0,
   "modified": "2018-03-27 13:15:18.142041",
   "modified_by": "rohit_rakesh@hotmail.com",
   "name": "Quotation Item-stock_uom-width",
   "owner": "rohit_rakesh@hotmail.com",
   "parent": null,
   "parentfield": null,
   "parenttype": null,
   "property": "width",
   "property_type": "Data",
   "value": null
  },
  {
   "_assign": null,
   "_comments": null,
   "_liked_by": null,
   "_user_tags": null,
   "creation": "2018-03-27 13:15:18.132958",
   "default_value": null,
   "doc_type": "Quotation Item",
   "docstatus": 0,
   "doctype_or_field": "DocField",
   "field_name": "stock_uom",
   "idx": 0,
   "modified": "2018-03-27 13:15:18.132958",
   "modified_by": "rohit_rakesh@hotmail.com",
   "name": "Quotation Item-stock_uom-print_width",
   "owner": "rohit_rakesh@hotmail.com",
   "parent": null,
   "parentfield": null,
   "parenttype": null,
   "property": "print_width",
   "property_type": "Data",
   "value": null
  },
  {
   "_assign": null,
   "_comments": null,
   "_liked_by": null,
   "_user_tags": null,
   "creation": "2018-03-27 13:15:18.123032",
   "default_value": null,
   "doc_type": "Quotation Item",
   "docstatus": 0,
   "doctype_or_field": "DocField",
   "field_name": "qty",
   "idx": 0,
   "modified": "2018-03-27 13:15:18.123032",
   "modified_by": "rohit_rakesh@hotmail.com",
   "name": "Quotation Item-qty-width",
   "owner": "rohit_rakesh@hotmail.com",
   "parent": null,
   "parentfield": null,
   "parenttype": null,
   "property": "width",
   "property_type": "Data",
   "value": "50px"
  },
  {
   "_assign": null,
   "_comments": null,
   "_liked_by": null,
   "_user_tags": null,
   "creation": "2018-03-27 13:15:18.114662",
   "default_value": null,
   "doc_type": "Quotation Item",
   "docstatus": 0,
   "doctype_or_field": "DocField",
   "field_name": "qty",
   "idx": 0,
   "modified": "2018-03-27 13:15:18.114662",
   "modified_by": "rohit_rakesh@hotmail.com",
   "name": "Quotation Item-qty-print_width",
   "owner": "rohit_rakesh@hotmail.com",
   "parent": null,
   "parentfield": null,
   "parenttype": null,
   "property": "print_width",
   "property_type": "Data",
   "value": "50px"
  },
  {
   "_assign": null,
   "_comments": null,
   "_liked_by": null,
   "_user_tags": null,
   "creation": "2018-03-27 13:15:18.104458",
   "default_value": null,
   "doc_type": "Quotation Item",
   "docstatus": 0,
   "doctype_or_field": "DocField",
   "field_name": "description",
   "idx": 0,
   "modified": "2018-03-27 13:15:18.104458",
   "modified_by": "rohit_rakesh@hotmail.com",
   "name": "Quotation Item-description-translatable",
   "owner": "rohit_rakesh@hotmail.com",
   "parent": null,
   "parentfield": null,
   "parenttype": null,
   "property": "translatable",
   "property_type": "Check",
   "value": "1"
  },
  {
   "_assign": null,
   "_comments": null,
   "_liked_by": null,
   "_user_tags": null,
   "creation": "2018-03-27 13:15:18.094576",
   "default_value": null,
   "doc_type": "Quotation Item",
   "docstatus": 0,
   "doctype_or_field": "DocField",
   "field_name": "item_name",
   "idx": 0,
   "modified": "2018-03-27 13:15:18.094576",
   "modified_by": "rohit_rakesh@hotmail.com",
   "name": "Quotation Item-item_name-translatable",
   "owner": "rohit_rakesh@hotmail.com",
   "parent": null,
   "parentfield": null,
   "parenttype": null,
   "property": "translatable",
   "property_type": "Check",
   "value": "1"
  },
  {
   "_assign": null,
   "_comments": null,
   "_liked_by": null,
   "_user_tags": null,
   "creation": "2018-03-27 13:15:18.084134",
   "default_value": null,
   "doc_type": "Quotation Item",
   "docstatus": 0,
   "doctype_or_field": "DocField",
   "field_name": "customer_item_code",
   "idx": 0,
   "modified": "2018-03-27 13:15:18.084134",
   "modified_by": "rohit_rakesh@hotmail.com",
   "name": "Quotation Item-customer_item_code-translatable",
   "owner": "rohit_rakesh@hotmail.com",
   "parent": null,
   "parentfield": null,
   "parenttype": null,
   "property": "translatable",
   "property_type": "Check",
   "value": "1"
  },
  {
   "_assign": null,
   "_comments": null,
   "_liked_by": null,
   "_user_tags": null,
   "creation": "2018-03-27 13:15:18.073813",
   "default_value": null,
   "doc_type": "Quotation Item",
   "docstatus": 0,
   "doctype_or_field": "DocField",
   "field_name": "item_code",
   "idx": 0,
   "modified": "2018-03-27 13:15:18.073813",
   "modified_by": "rohit_rakesh@hotmail.com",
   "name": "Quotation Item-item_code-columns",
   "owner": "rohit_rakesh@hotmail.com",
   "parent": null,
   "parentfield": null,
   "parenttype": null,
   "property": "columns",
   "property_type": "Int",
   "value": "2"
  },
  {
   "_assign": null,
   "_comments": null,
   "_liked_by": null,
   "_user_tags": null,
   "creation": "2018-03-26 22:10:33.497657",
   "default_value": null,
   "doc_type": "Quotation Item",
   "docstatus": 0,
   "doctype_or_field": "DocField",
   "field_name": "discount_percentage",
   "idx": 0,
   "modified": "2018-03-26 22:10:33.497657",
   "modified_by": "rohit_rakesh@hotmail.com",
   "name": "Quotation Item-discount_percentage-columns",
   "owner": "rohit_rakesh@hotmail.com",
   "parent": null,
   "parentfield": null,
   "parenttype": null,
   "property": "columns",
   "property_type": "Int",
   "value": "1"
  },
  {
   "_assign": null,
   "_comments": null,
   "_liked_by": null,
   "_user_tags": null,
   "creation": "2018-03-26 22:08:03.011167",
   "default_value": null,
   "doc_type": "Quotation Item",
   "docstatus": 0,
   "doctype_or_field": "DocField",
   "field_name": "price_list_rate",
   "idx": 0,
   "modified": "2018-03-26 22:08:03.011167",
   "modified_by": "rohit_rakesh@hotmail.com",
   "name": "Quotation Item-price_list_rate-columns",
   "owner": "rohit_rakesh@hotmail.com",
   "parent": null,
   "parentfield": null,
   "parenttype": null,
   "property": "columns",
   "property_type": "Int",
   "value": "1"
  },
  {
   "_assign": null,
   "_comments": null,
   "_liked_by": null,
   "_user_tags": null,
   "creation": "2018-03-26 22:08:02.997306",
   "default_value": null,
   "doc_type": "Quotation Item",
   "docstatus": 0,
   "doctype_or_field": "DocField",
   "field_name": "qty",
   "idx": 0,
   "modified": "2018-03-26 22:08:02.997306",
   "modified_by": "rohit_rakesh@hotmail.com",
   "name": "Quotation Item-qty-columns",
   "owner": "rohit_rakesh@hotmail.com",
   "parent": null,
   "parentfield": null,
   "parenttype": null,
   "property": "columns",
   "property_type": "Int",
   "value": "1"
  },
  {
   "_assign": null,
   "_comments": null,
   "_liked_by": null,
   "_user_tags": null,
   "creation": "2018-03-26 17:26:38.240198",
   "default_value": null,
   "doc_type": "Quotation Item",
   "docstatus": 0,
   "doctype_or_field": "DocField",
   "field_name": "discount_percentage",
   "idx": 0,
   "modified": "2018-03-26 17:26:38.240198",
   "modified_by": "rohit_rakesh@hotmail.com",
   "name": "Quotation Item-discount_percentage-in_list_view",
   "owner": "rohit_rakesh@hotmail.com",
   "parent": null,
   "parentfield": null,
   "parenttype": null,
   "property": "in_list_view",
   "property_type": "Check",
   "value": "1"
  }
 ],
 "sync_on_migrate": 1
}